{
  "version": "1.0",
  "defaultProvider": "cdnjs",
  "libraries": [
    {
      "library": "datatables@1.10.19",
      "destination": "wwwroot/lib/datatables/",
      "files": [
        "js/jquery.dataTables.min.js",
        "css/jquery.dataTables.min.css",
        "css/dataTables.bootstrap4.min.css",
        "js/dataTables.bootstrap4.min.js",
        "images/sort_asc.png",
        "images/sort_asc_disabled.png",
        "images/sort_both.png",
        "images/sort_desc.png",
        "images/sort_desc_disabled.png"
      ]
    },
    {
      "library": "jquery-validation-unobtrusive@3.2.11",
      "destination": "wwwroot/lib/jquery-validation-unobtrusive/"
    },
    {
      "provider": "unpkg",
      "library": "jquery-ajax-unobtrusive@3.2.6",
      "destination": "wwwroot/lib/jquery-ajax-unobtrusive/"
    },
    {
      "library": "jquery-validate@1.19.1",
      "destination": "wwwroot/lib/jquery-validate/",
      "files": [
        "jquery.validate.min.js",
        "localization/messages_ru.min.js"
      ]
    }
  ]
}